{
            "documento":100743 ,
            "nombre": "Ramiro",
            "apellido":"Pedrito",
            "telefono": 176578,
            "fecha_nacimiento":"10/3/2004" ,
            "correo":"Ramiro@gmail.com",
	    "contrasena":"1234miguel"
 }

{
            "documento":2345 ,
            "nombre": "Jose",
            "apellido":"Miguel",
            "telefono": 1203458,
            "fecha_nacimiento":"20/5/2011" ,
            "correo":"jose@gmail.com",
	    "contrasena":"1234jose"
 }

{
            "documento":12094 ,
            "nombre": "Rodolfo",
            "apellido":"Gutierrez",
            "telefono": 6702,
            "fecha_nacimiento":"2/10/2006" ,
            "correo":"Rodolfo@gmail.com",
	    "contrasena":"1234rodolfo"
 }
        